%FSLAX34Y34*%
%MOMM*%
G04 EasyPC Gerber Version 16.0.6 Build 3249 *
%ADD16R,0.85240X1.35240*%
%ADD17R,1.35240X0.85240*%
%ADD14R,0.95240X0.95240*%
%ADD18R,1.15240X1.95240*%
%ADD19R,1.15240X2.55240*%
%ADD15C,1.67640*%
X0Y0D02*
D02*
D14*
X242105Y90151D03*
Y106661D03*
X242535Y147241D03*
Y163751D03*
X261535Y78511D03*
Y95021D03*
D02*
D15*
X37635Y209531D03*
X63035D03*
X88435D03*
X113835D03*
X139235D03*
X164635D03*
X190035D03*
X215435D03*
X240835D03*
X241152Y57131D03*
X266235Y209531D03*
X266552Y57131D03*
X291635Y82531D03*
Y209531D03*
X291952Y57131D03*
X295445Y125241D03*
Y175241D03*
X317035Y82531D03*
Y209531D03*
X317352Y57131D03*
D02*
D16*
X63035Y52051D03*
Y186051D03*
X75035Y52051D03*
Y186051D03*
X87035Y52051D03*
Y186051D03*
X99035Y52051D03*
Y186051D03*
X111035Y52051D03*
Y186051D03*
X123035Y52051D03*
Y186051D03*
X135035Y52051D03*
Y186051D03*
X147035Y52051D03*
Y186051D03*
X159035Y52051D03*
Y186051D03*
X171035Y52051D03*
Y186051D03*
X183035Y52051D03*
Y186051D03*
X195035Y52051D03*
Y186051D03*
D02*
D17*
X223035Y78051D03*
Y88051D03*
Y101051D03*
Y113051D03*
Y125051D03*
Y137051D03*
Y150051D03*
Y160051D03*
D02*
D18*
X216035Y61051D03*
Y177051D03*
D02*
D19*
X26035Y58051D03*
Y180051D03*
X0Y0D02*
M02*
